Lab 4: LTER Network Data
…
#The chi-square test produced a statistically significant result, with a chi-squared statistic of 200.71 and a p-value < 2.2e-16, well below the <0.05 threshold. This indicates a strong association between forest type and channel unit for Coastal Giant Salamander abundance. We reject the null hypothesis and say that there is a significant relationship between the forest type and channel unit for Coastal Giant Salamander abundance.

Code

#2
sally_clean <- and_vertebrates |> 
  filter(species == "Coastal giant salamander") |> 
  drop_na(weight_g)

cc_biomass <- sally_clean |> filter(section == "CC") |> pull(weight_g)
og_biomass <- sally_clean |> filter(section == "OG") |> pull(weight_g)

print(sally_clean)

# A tibble: 6,338 × 16
    year sitecode section reach  pass unitnum unittype vert_index pitnumber
   <dbl> <chr>    <chr>   <chr> <dbl>   <dbl> <chr>         <dbl>     <dbl>
 1  1993 MACKCC-L CC      L         1       1 P                16        NA
 2  1993 MACKCC-L CC      L         1       2 C                36        NA
 3  1993 MACKCC-L CC      L         1       2 C                37        NA
 4  1993 MACKCC-L CC      L         1       2 C                38        NA
 5  1993 MACKCC-L CC      L         1       2 C                39        NA
 6  1993 MACKCC-L CC      L         1       2 C                40        NA
 7  1993 MACKCC-L CC      L         1       2 C                41        NA
 8  1993 MACKCC-L CC      L         1       2 C                42        NA
 9  1993 MACKCC-L CC      L         1       2 C                43        NA
10  1993 MACKCC-L CC      L         1       2 C                44        NA
# ℹ 6,328 more rows
# ℹ 7 more variables: species <chr>, length_1_mm <dbl>, length_2_mm <dbl>,
#   weight_g <dbl>, clip <chr>, sampledate <date>, notes <chr>
…
The downloaded binary packages are in
    /var/folders/9z/jhvcp6pd2jdgn7z7pd30zw1w0000gn/T//Rtmp0P9AGw/downloaded_packages

Code

??car

Code

# data set
data("pie_crab")

pie_crab

# A tibble: 392 × 9
   date       latitude site   size air_temp air_temp_sd water_temp water_temp_sd
   <date>        <dbl> <chr> <dbl>    <dbl>       <dbl>      <dbl>         <dbl>
 1 2016-07-24       30 GTM    12.4     21.8        6.39       24.5          6.12
 2 2016-07-24       30 GTM    14.2     21.8        6.39       24.5          6.12
 3 2016-07-24       30 GTM    14.5     21.8        6.39       24.5          6.12
 4 2016-07-24       30 GTM    12.9     21.8        6.39       24.5          6.12
 5 2016-07-24       30 GTM    12.4     21.8        6.39       24.5          6.12
 6 2016-07-24       30 GTM    13.0     21.8        6.39       24.5          6.12
 7 2016-07-24       30 GTM    10.3     21.8        6.39       24.5          6.12
 8 2016-07-24       30 GTM    11.2     21.8        6.39       24.5          6.12
 9 2016-07-24       30 GTM    12.7     21.8        6.39       24.5          6.12
10 2016-07-24       30 GTM    14.6     21.8        6.39       24.5          6.12
# ℹ 382 more rows
# ℹ 1 more variable: name <chr>
…
#perform Welch's ANOVA
oneway.test(size ~ site, data = pie_crab, var.equal = FALSE)

    One-way analysis of means (not assuming equal variances)

data:  size and site
F = 39.108, num df = 12.00, denom df = 145.79, p-value < 2.2e-16

Code

data("pie_crab")

pie_crab

# A tibble: 392 × 9
   date       latitude site   size air_temp air_temp_sd water_temp water_temp_sd
   <date>        <dbl> <chr> <dbl>    <dbl>       <dbl>      <dbl>         <dbl>
 1 2016-07-24       30 GTM    12.4     21.8        6.39       24.5          6.12
 2 2016-07-24       30 GTM    14.2     21.8        6.39       24.5          6.12
 3 2016-07-24       30 GTM    14.5     21.8        6.39       24.5          6.12
 4 2016-07-24       30 GTM    12.9     21.8        6.39       24.5          6.12
 5 2016-07-24       30 GTM    12.4     21.8        6.39       24.5          6.12
 6 2016-07-24       30 GTM    13.0     21.8        6.39       24.5          6.12
 7 2016-07-24       30 GTM    10.3     21.8        6.39       24.5          6.12
 8 2016-07-24       30 GTM    11.2     21.8        6.39       24.5          6.12
 9 2016-07-24       30 GTM    12.7     21.8        6.39       24.5          6.12
10 2016-07-24       30 GTM    14.6     21.8        6.39       24.5          6.12
# ℹ 382 more rows
# ℹ 1 more variable: name <chr>
…
Code

pie_crab

# A tibble: 392 × 9
   date       latitude site   size air_temp air_temp_sd water_temp water_temp_sd
   <date>        <dbl> <chr> <dbl>    <dbl>       <dbl>      <dbl>         <dbl>
 1 2016-07-24       30 GTM    12.4     21.8        6.39       24.5          6.12
 2 2016-07-24       30 GTM    14.2     21.8        6.39       24.5          6.12
 3 2016-07-24       30 GTM    14.5     21.8        6.39       24.5          6.12
 4 2016-07-24       30 GTM    12.9     21.8        6.39       24.5          6.12
 5 2016-07-24       30 GTM    12.4     21.8        6.39       24.5          6.12
 6 2016-07-24       30 GTM    13.0     21.8        6.39       24.5          6.12
 7 2016-07-24       30 GTM    10.3     21.8        6.39       24.5          6.12
 8 2016-07-24       30 GTM    11.2     21.8        6.39       24.5          6.12
 9 2016-07-24       30 GTM    12.7     21.8        6.39       24.5          6.12
10 2016-07-24       30 GTM    14.6     21.8        6.39       24.5          6.12
# ℹ 382 more rows
# ℹ 1 more variable: name <chr>
…
